{"hash":"73ca44a20d4e790e1dcd647a0aef8d1a89274eb7","data":{"posts":{"totalCount":10,"pageInfo":{"totalPages":2,"currentPage":1},"edges":[{"node":{"id":"b8b8b7bfb9d588876710e2e2c97eea55","title":"멋쟁이 사자처럼은 어떤 동아리 인가요?","summary":"2013년 이두희씨가 처음 만든 코딩 동아리입니다. 하지만 올해는 스타트업 사관학교 입니다.","path":"/question-number-one"}},{"node":{"id":"cf095d818d4d136416e0f6fb7156cd6f","title":"코딩은 안 배우나요?","summary":"배웁니다. 웹 프로그래밍을 배울 것이지만 초반에는 기획에 대해 배웁니다.","path":"/question-number-two"}},{"node":{"id":"fae3dd354f0f5e4a1f63db960cf38024","title":"코딩은 언제 배우나요?","summary":"계획중에 있습니다.자세한 세부사항은 OT때 알려드릴 예정입니다.","path":"/question-number-three"}},{"node":{"id":"e37b61ebbc76b368cdb11fd613fc4a90","title":"어떤 기준으로 뽑으실 건가요?","summary":"기획과 개발 두 부분을 다 고려해 뽑을 예정입니다. 기획에 대한 기준은 운영진 박종현님 브런치에 있습니다. Members에 들어가 박종현님의 브런치 아이콘을 클릭해주세요!","path":"/question-number-four"}},{"node":{"id":"d8f0c3cc869cf4095a253f2f83e6e1f1","title":"몇 명 정도 뽑으실 예정인가요?","summary":"12명입니다.","path":"/question-number-five"}}]}},"context":{}}