{"hash":"786306c70b0ba1df1c43d7f4cb98b2eeccc5cd3e","data":{"tag":{"title":"frontend","belongsTo":{"totalCount":5,"pageInfo":{"totalPages":2,"currentPage":1},"edges":[{"node":{"title":"Introduction to Gridsome","timeToRead":2,"date":"April 8, 2019","path":"/introduction-to-gridsome","summary":"Gridsome is a Vue.js-powered, modern site generator for building the fastest possible websites for any Headless CMS, APIs or Markdown-files. Gridsome makes it easy and fun for developers to create fast, beautiful websites without needing to become a performance expert.","tags":[{"title":"frontend"},{"title":"coding"},{"title":"vue"}]}},{"node":{"title":"How to Get Better At Coding","timeToRead":2,"date":"April 5, 2019","path":"/how-to-get-better-at-coding","summary":"Lorem ipsum dolor sit amet consectetur adipisicing elit. Hic rerum earum quos explicabo suscipit maxime iste qui nihil. Reiciendis asperiores minus necessitatibus","tags":[{"title":"coding"},{"title":"frontend"},{"title":"backend"}]}},{"node":{"title":"Top 5 Static Site Generators in Vue","timeToRead":1,"date":"April 3, 2019","path":"/top-5-static-site-generators-in-vue","summary":"Lorem ipsum dolor sit amet consectetur adipisicing elit. Hic rerum earum quos explicabo suscipit maxime iste qui nihil. Reiciendis asperiores minus necessitatibus","tags":[{"title":"frontend"},{"title":"coding"},{"title":"vue"}]}}]}}},"context":{}}