{"hash":"f7c63ce1b835989a8430071e8da74f6e7642b922","data":{"tag":{"title":"coding","belongsTo":{"totalCount":5,"pageInfo":{"totalPages":2,"currentPage":1},"edges":[{"node":{"title":"멋쟁이 사자처럼은 어떤 동아리 인가요?","timeToRead":1,"date":"March 18, 2020","path":"/question-number-one","summary":"2013년 이두희씨가 처음 만든 코딩 동아리입니다. 하지만 올해는 스타트업 사관학교 입니다.","tags":[{"title":"coding"},{"title":"frontend"},{"title":"backend"}]}},{"node":{"title":"코딩은 안 배우나요?","timeToRead":1,"date":"March 17, 2020","path":"/question-number-two","summary":"배웁니다. 웹 프로그래밍을 배울 것이지만 초반에는 기획에 대해 배웁니다.","tags":[{"title":"coding"},{"title":"frontend"},{"title":"backend"}]}},{"node":{"title":"코딩은 언제 배우나요?","timeToRead":1,"date":"March 16, 2020","path":"/question-number-three","summary":"계획중에 있습니다.자세한 세부사항은 OT때 알려드릴 예정입니다.","tags":[{"title":"coding"},{"title":"frontend"},{"title":"backend"}]}}]}}},"context":{}}