{"hash":"94a5cffb7ba97a5035e51274e05e81f98261509b","data":{"posts":{"totalCount":10,"pageInfo":{"totalPages":2,"currentPage":2},"edges":[{"node":{"id":"3afa028429a9366799826c601f03af4d","title":"회비가 있나요?","summary":"학교 회비로 5만원을 걷을 예정입니다.","path":"/question-number-seven"}},{"node":{"id":"efb75b74a9d58e0db674b15f27ac4be0","title":"회비 어디다 쓰실 건가요?","summary":"회비는 여러분 MT, 회식, 해커톤 등 행사로 쓸 예정입니다. 그리고 예산은 모든 멋사분들과 합의 하에 쓸 예정입니다.","path":"/question-number-eight"}},{"node":{"id":"fb8ba1c6c5bd9302fd285f6028d1fc35","title":"창업과 관련된 동아리인가요? 저는 코딩만 배우고 싶은데","summary":"코딩만 배우고 싶으시다면 다른 동아리 찾아 보시길 바랍니다.","path":"/question-number-ten"}},{"node":{"id":"3b4e122d0fa912b4afae6f2a8be2023e","title":"일정이 어떻게 되나요?","summary":"여름 방학 전까지, 개발과 기획에 대해서 동시에 배웁니다. 여름에는 단 시간 내 MVP를 만드는 것이 목표입니다. 이 후 하반기 해커톤을 준비하고 좋은 성적을 거두면 12월 VC 앞에서 발표합니다.","path":"/quesiton-number-nine"}},{"node":{"id":"e962ff7f130c9165cc9d502a27cea42e","title":"언제 어디서 뽑나요?","summary":"3월 **일 멋사 apply를 통해 지원서 제출하시면 됩니다. 건투를 빕니다!","path":"/question-number-eleven"}}]}},"context":{}}