{"hash":"8fba78f9c40800590389de78ba655e341a14b70b","data":{"posts":{"totalCount":10,"pageInfo":{"totalPages":2,"currentPage":1},"edges":[{"node":{"id":"227fff603a15507cc6ffd6880e34de0c","title":"멋쟁이 사자처럼은 어떤 동아리 인가요?","date":"March 18, 2020","summary":"2013년 이두희씨가 처음 만든 코딩 동아리입니다. 하지만 올해는 스타트업 사관학교 입니다.","timeToRead":1,"path":"/question-number-one"}},{"node":{"id":"13328d060b93892a169b2d96a0693c6f","title":"코딩은 안 배우나요?","date":"March 17, 2020","summary":"배웁니다. 웹 프로그래밍을 배울 것이지만 초반에는 기획에 대해 배웁니다.","timeToRead":1,"path":"/question-number-two"}},{"node":{"id":"22081ba62b365f8060ef36982510fcb3","title":"코딩은 언제 배우나요?","date":"March 16, 2020","summary":"계획중에 있습니다.자세한 세부사항은 OT때 알려드릴 예정입니다.","timeToRead":1,"path":"/question-number-three"}},{"node":{"id":"fdeec0ab5db48ad335685f0f689d980b","title":"어떤 기준으로 뽑으실 건가요?","date":"March 15, 2020","summary":"기획과 개발 두 부분을 다 고려해 뽑을 예정입니다. 기획에 대한 기준은 운영진 박종현님 브런치에 있습니다. 밑에 첫 번째 아이콘을 클릭해주세요!","timeToRead":1,"path":"/question-number-four"}},{"node":{"id":"67c9012e38724f11a53795db4941d616","title":"몇 명 정도 뽑으실 예정인가요?","date":"March 14, 2020","summary":"12명입니다.","timeToRead":1,"path":"/question-number-five"}}]}},"context":{}}